CPF: 881.202.598-66 : Matrícula: 0235861-1 : Nome: Arthur Dias
CPF: 396.816.628-06 : Matrícula: 0362487-0 : Nome: Gabriel Boaventura
CPF: 737.518.762-27 : Matrícula: 0534068-3 : Nome: Felipe Lacerda		 
CPF: 640.128.914-72 : Matrícula: 0868161-9 : Nome: Arthur Moraes
CPF: 549.735.364-90 : Matrícula: 0226348-3 : Nome: Gustavo Moraes
CPF: 404.887.688-02 : Matrícula: 0941073-2 : Nome: Arthur Fernandes
CPF: 648.201.159-44 : Matrícula: 0263895-9 : Nome: Heitor Dias
CPF: 634.278.134-60 : Matrícula: 0663372-2 : Nome: Enzo Garcia
CPF: 350.015.864-10 : Matrícula: 0633000-2 : Nome: Bernardo Martins
CPF: 636.784.568-20 : Matrícula: 0983113-4 : Nome: Heitor Lacerda		 
CPF: 909.623.200-30 : Matrícula: 0685386-2 : Nome: Gustavo Santos
CPF: 705.515.070-12 : Matrícula: 0214542-1 : Nome: Gabriel Boaventura
CPF: 260.968.734-64 : Matrícula: 0989105-6 : Nome: Nicolas Silva
CPF: 718.544.308-31 : Matrícula: 0951521-6 : Nome: Samuel Martinez
CPF: 492.629.104-52 : Matrícula: 0547663-1 : Nome: Davi Santana
CPF: 786.680.554-70 : Matrícula: 0366769-3 : Nome: Bernardo Costa
CPF: 247.318.556-59 : Matrícula: 0485026-2 : Nome: Gabriel Dias
CPF: 265.063.346-81 : Matrícula: 0119549-2 : Nome: Gustavo Moraes
CPF: 487.179.199-83 : Matrícula: 0544167-6 : Nome: Bernardo Silva
CPF: 694.997.951-70 : Matrícula: 0344479-1 : Nome: Felipe Martinez
CPF: 316.261.162-88 : Matrícula: 0996796-6 : Nome: Rafael Oliveira
CPF: 492.432.789-16 : Matrícula: 0444113-3 : Nome: Lucas Silva
CPF: 801.599.113-70 : Matrícula: 0811958-9 : Nome: Mateus Alves
CPF: 449.486.397-10 : Matrícula: 0657949-3 : Nome: Pedro Alves
CPF: 984.290.925-52 : Matrícula: 0181117-7 : Nome: Heitor Silva
CPF: 365.429.733-11 : Matrícula: 0630521-0 : Nome: Enzo Dias
CPF: 521.985.324-41 : Matrícula: 0747420-2 : Nome: Gustavo Martinez
CPF: 373.530.461-39 : Matrícula: 0451236-7 : Nome: Arthur Silva
CPF: 654.184.376-74 : Matrícula: 0136769-2 : Nome: Heitor Alves
CPF: 780.165.139-13 : Matrícula: 0888603-2 : Nome: Guilherme Garcia
